<?xml version="1.0" encoding="UTF-8" standalone="no"?>
<svg
   xmlns:dc="http://purl.org/dc/elements/1.1/"
   xmlns:cc="http://creativecommons.org/ns#"
   xmlns:rdf="http://www.w3.org/1999/02/22-rdf-syntax-ns#"
   xmlns:svg="http://www.w3.org/2000/svg"
   xmlns="http://www.w3.org/2000/svg"
   xmlns:sodipodi="http://sodipodi.sourceforge.net/DTD/sodipodi-0.dtd"
   xmlns:inkscape="http://www.inkscape.org/namespaces/inkscape"
   inkscape:export-ydpi="48.000004"
   inkscape:export-xdpi="48.000004"
   inkscape:export-filename="/tmp/kuri.png"
   sodipodi:docname="kuri.svg"
   inkscape:version="1.0beta2 (2b71d25d45, 2019-12-03)"
   id="svg8"
   version="1.1"
   viewBox="0 0 270.93333 270.93334"
   height="1024"
   width="1024">
  <defs
     id="defs2">
    <linearGradient
       gradientTransform="matrix(3.1615924,0,0,3.1615923,-0.44807111,-0.44863861)"
       id="SVGID_1_"
       gradientUnits="userSpaceOnUse"
       x1="12.8064"
       y1="73.193703"
       x2="73.193398"
       y2="12.8067">
      <stop
         offset="0"
         style="stop-color:#144a50;stop-opacity:1"
         id="stop7" />
      <stop
         offset="1"
         style="stop-color:#147cb4;stop-opacity:1"
         id="stop9" />
    </linearGradient>
    <linearGradient
       y2="12.8067"
       x2="73.193398"
       y1="73.193703"
       x1="12.8064"
       gradientUnits="userSpaceOnUse"
       id="SVGID_1_-3"
       gradientTransform="matrix(3.1615922,0,0,3.1615922,-0.44844949,-0.44845618)">
      <stop
         id="stop7-6"
         style="stop-color:#144a50;stop-opacity:1"
         offset="0" />
      <stop
         id="stop9-7"
         style="stop-color:#147cb4;stop-opacity:1"
         offset="1" />
    </linearGradient>
  </defs>
  <sodipodi:namedview
     units="px"
     inkscape:window-maximized="1"
     inkscape:window-y="0"
     inkscape:window-x="46"
     inkscape:window-height="1049"
     inkscape:window-width="1874"
     showgrid="false"
     inkscape:document-rotation="0"
     inkscape:current-layer="layer1"
     inkscape:document-units="mm"
     inkscape:cy="722.81194"
     inkscape:cx="686.39478"
     inkscape:zoom="0.45800429"
     inkscape:pageshadow="2"
     inkscape:pageopacity="0.0"
     borderopacity="1.0"
     bordercolor="#666666"
     pagecolor="#ffffff"
     id="base" />
  <metadata
     id="metadata5">
    <rdf:RDF>
      <cc:Work
         rdf:about="">
        <dc:format>image/svg+xml</dc:format>
        <dc:type
           rdf:resource="http://purl.org/dc/dcmitype/StillImage" />
        <dc:title />
      </cc:Work>
    </rdf:RDF>
  </metadata>
  <g
     id="layer1"
     inkscape:groupmode="layer"
     inkscape:label="Ebene 1">
    <circle
       style="opacity:1;fill:url(#SVGID_1_-3);fill-rule:nonzero;stroke-width:3.16159"
       id="circle11-5"
       cy="135.5"
       cx="135.5"
       fill="url(#SVGID_1_)"
       r="135" />
    <ellipse
       r="135"
       fill="url(#SVGID_1_)"
       cx="135.5"
       cy="135.5"
       id="circle11"
       style="opacity:1;fill:url(#SVGID_1_);fill-rule:nonzero;stroke-width:3.16159" />
    <g
       id="g993"
       style="fill:#ffffff;fill-opacity:1;stroke:#ffffff;stroke-opacity:1">
      <path
         style="fill:#ffffff;fill-opacity:1;stroke:#ffffff;stroke-width:0.264583px;stroke-linecap:butt;stroke-linejoin:miter;stroke-opacity:1"
         d="m 162.05776,143.89998 -21.56535,22.11982 13.66394,21.98559 68.20336,3.67473 -17.80894,-25.26484 -35.13589,5.79863 z"
         id="path10"
         inkscape:connector-curvature="0"
         sodipodi:nodetypes="ccccccc" />
      <path
         style="fill:#ffffff;fill-opacity:1;stroke:#ffffff;stroke-width:0.264583px;stroke-linecap:butt;stroke-linejoin:miter;stroke-opacity:1"
         d="m 140.49241,166.0198 -20.48083,13.18663 -0.8204,50.40357 -33.47072,-4.58381 14.77057,-48.79411 21.44099,-32.08021 z"
         id="path12"
         inkscape:connector-curvature="0"
         sodipodi:nodetypes="ccccccc" />
      <path
         style="fill:#ffffff;fill-opacity:1;stroke:#ffffff;stroke-width:0.264583px;stroke-linecap:butt;stroke-linejoin:miter;stroke-opacity:1"
         d="m 121.93202,144.15187 -17.41862,-45.643571 8.90838,-7.38578 32.46063,-5.62951 14.78347,20.242491 1.39188,38.16448 -21.56535,22.11982 z"
         id="path14"
         inkscape:connector-curvature="0"
         sodipodi:nodetypes="cccccccc" />
      <circle
         style="fill:#ffffff;fill-opacity:1;fill-rule:evenodd;stroke:#ffffff;stroke-width:0.564691;stroke-opacity:1"
         id="path16"
         cx="123.66637"
         cy="58.637291"
         r="25.141726" />
      <path
         style="fill:#ffffff;fill-opacity:1;stroke:#ffffff;stroke-width:0.264583px;stroke-linecap:butt;stroke-linejoin:miter;stroke-opacity:1"
         d="m 160.66588,105.7355 6.16389,2.56987 -9.28472,17.48873 15.8006,11.2262 7.48406,-33.64248 -34.9473,-17.884811 z"
         id="path18"
         inkscape:connector-curvature="0"
         sodipodi:nodetypes="ccccccc" />
      <path
         style="fill:#ffffff;fill-opacity:1;stroke:#ffffff;stroke-width:0.264583px;stroke-linecap:butt;stroke-linejoin:miter;stroke-opacity:1"
         d="M 113.42178,91.122519 134.22883,122.20854 99.58879,139.77805 95.1143,118.13292 118.37237,117.04386 104.5134,98.508299 Z"
         id="path20"
         inkscape:connector-curvature="0"
         sodipodi:nodetypes="ccccccc" />
    </g>
  </g>
</svg>
